{
  "home": {
    "page": "home",
    "title": "Apresentação",
    "text": "Revelando as Memórias de São Bernardo do Campo",
    "date": "2022",
    "place": "Iniciar",
    "images": [
      [
        {
          "src": "632_0",
          "aspect": "landscape",
          "alt": "Crianças sobre carro alegórico vestem roupas que representam profissões de forma caricatural. Ao fundo lê-se uma placa que diz: Trabalhos Manuais",
          "text": "Durante o período da Ditadura Militar, a cidade costumava realizar desfiles em comemoração a seu aniversário. Essa parada, ocorrida em 1971, se realizou em comemoração ao 418 aniversário da cidade."
        },
        {
          "src": "632_1",
          "aspect": "landscape",
          "alt": "Crianças fantaziadas de flor, com pétalas coloridas e roupa branca, sobre carro alegórico que apresenta os dizeres: Encontro de Canto Orfeônico",
          "text": ""
        },
        {
          "src": "632_2",
          "aspect": "portrait",
          "alt": "Muitas pessoas se amontoam para assistir ao desfile. À frente, crianças seguram diversos balões multicoloridos.",
          "text": ""
        },
        {
          "src": "632_3",
          "aspect": "landscape",
          "alt": "Uma banda musical com diversos músicos, fardados com fraque vermelho e calças brancas. Eles caminham em formação carregando seus instrumentos, em sua maioria metais como trombone, trompete, etc.",
          "text": ""
        },
        {
          "src": "632_4",
          "aspect": "landscape",
          "alt": "Dua mulheres com roupas caricaturais. A seu fundo, um enorme leque adorna o carro alegórico",
          "text": ""
        }
      ],
      [
        {
          "src": "632_5",
          "aspect": "landscape",
          "alt": "Diversas garotas marcham em formação, vestindo saias e chapéus brancos e blusas vermelhas."
        },
        {
          "src": "632_6",
          "aspect": "landscape",
          "alt": "Uma banda marcial, com roupas pretas adornadas com franjas brancas, toca percussão para o público."
        },
        {
          "src": "632_7",
          "aspect": "portrait",
          "alt": "Crianças brincam atrás de uma alegoria que representa uma grande cabeça de palhaço."
        },
        {
          "src": "632_8",
          "aspect": "landscape",
          "alt": "Mulheres com jalecos brancos desfilam carregando placas indicando suas profissões, como: metrologia, inspeção de qualidade"
        },
        {
          "src": "632_9",
          "aspect": "landscape",
          "alt": "Homens com roupas operárias desfilam carregando placas indicando suas profissões, como: ajustador e ferramentaria"
        }
      ],
      [
        {
          "src": "632_10",
          "aspect": "portrait",
          "alt": "Homens com roupas operárias estão sobre carro alegórico exibindo ferramentas mecanicas. Uma placa diz: É tempo de construir."
        },
        {
          "src": "632_11",
          "aspect": "portrait",
          "alt": "Duas mulheres, uma descendente de oriental e uma de ascendencia africana seguram um grande globo terrestre de cores metalicas. Elas vestem roupas caricatas insinuando suas heranças culturais."
        },
        {
          "src": "632_12",
          "aspect": "landscape",
          "alt": "Duas mulheres, uma jovem e uma criança, estão sobre carro alegórico pintado com imagens coloridas."
        }
      ]
    ]
  },
  "negativos": {
    "page": "negativos",
    "title": "Os Negativos",
    "text": "O Centro de Memória possui mais de 350.000 fotos em película nunca antes reveladas. As fotografias foram registradas em películas de diversos formatos, como os tradicionais filmes de 35mm, fotos em largo formato de 72mm e slides em positivo.",
    "images": [
      [
        {
          "src": "11967_0",
          "aspect": "landscape",
          "alt": "Uma antiga máquina de amolar facas, montada sobre uma roda de bicicleta."
        },
        {
          "src": "11967_1",
          "aspect": "landscape",
          "alt": "A máquina de amolar facas posa em frente a casas de um bairro residencial."
        }
      ],
      [
        {
          "src": "11967_2",
          "aspect": "portrait",
          "alt": "O amolador o, com sua máquina de amolar facas, em frente a casas de um bairro residencial. Ele sopra seu apito, usado para avisar sua presença aos clientes."
        },
        {
          "src": "11967_3",
          "aspect": "portrait",
          "alt": "O amolador o, com sua máquina de amolar facas, em frente a casas de um bairro residencial."
        }
      ]
    ]
  },
  "restauro": {
    "page": "restauro",
    "title": "O Restauro",
    "text": "Os negativos datam da metade do século XX, sendo em sua maioria realizados nas decadas de 60 a 90 e em diferentes tipos de guarda e armazenamento, alguns deles apresentando certo estágio de degradação, com ataque por fungos ou decomposição química.",
    "images": [
      [
        {
          "src": "87",
          "aspect": "landscape",
          "alt": "Uma imagem que apresenta um muro em construção está tão degradada com manchas e buracos que se tornou uma imagem quase abstrata."
        }
      ],
      [
        {
          "src": "629_0",
          "aspect": "landscape",
          "alt": "Um trator asfalta uma rua. Há manchas brancas de formato irregular que impedem a leitura da foto."
        },
        {
          "src": "629_1",
          "aspect": "landscape",
          "alt": "Homens pavimentam uma rua. Há manchas brancas de formato irregular que impedem a leitura da foto."
        },
        {
          "src": "629_2",
          "aspect": "landscape",
          "alt": "Homens pavimentam uma rua. Há manchas brancas de formato irregular que impedem a leitura da foto."
        }
      ],
      [
        {
          "src": "420",
          "aspect": "square",
          "alt": "Um homem cumprimenta uma garotinha. Há manchas e rasgos tão intensos que a fotografia é praticameente ilegível."
        },
        {
          "src": "391",
          "aspect": "square",
          "alt": "Homens posam para a foto. Hpa uma enorme mancha negra que oculta praticamnete a foto toda."
        }
      ],
      [
        {
          "src": "148_0",
          "aspect": "landscape",
          "alt": "Uma foto de um grupo de homens em reunião se apresenta muito degradada. Há manchas brancas e linhas que atrapalham a leitura do conteúdo da foto."
        },
        {
          "src": "148_1",
          "aspect": "landscape",
          "alt": "Uma foto de um grupo de diversos homens. Um deles não pode ser identificado pois há um buraco na película em cima de seu rosto."
        },
        {
          "src": "298",
          "aspect": "landscape",
          "alt": "Dois homens se cumprimentam. Um deles não pode ser identificado pois há um buraco na película em cima de seu rosto. Há muitas manchas brancas e formato irregular."
        }
      ]
    ]
  },
  "digitalizacao": {
    "page": "digitalizacao",
    "title": "A Digitalização",
    "text": "O scanner de negativos foi o principal equipamento utilizado para digitalizar películas de 35mm. Os demais materiais foram fotografados sobre mesa de luz e tiveram de ser revelados digitalmente.",
    "images": [
      [
        {
          "src": "restauro_0",
          "aspect": "landscape",
          "alt": "A fachada do centro de memória é pintada com desenhos coloridos. Ela possui um arco, localizado acima de seu portão metalico azul, onde se lê: Centro de Memória de São Bernardo do Campo"
        },
        {
          "src": "restauro_7",
          "aspect": "landscape",
          "alt": "Um negativo fotográfico está sendo posicionado sobre uma mesa de luz por mãos vestindo luvas de latex. Podemos ver a câmera posicionada a 90 graus, montada sobre tripé especial, preparada para digitalizar a imagem do negativo."
        }
      ],
      [
        {
          "src": "restauro_2",
          "aspect": "portrait",
          "alt": "Um homem (Felipe) com camiseta vermelha e vestindo luvas de latex analiza um conjunto de negativos sobre a mesa de luz."
        },
        {
          "src": "restauro_3",
          "aspect": "portrait",
          "alt": "Uma garota (Ana), usando oculos e luvas de latex, limpa uma película com auxílio de um pincel e um soprador de ar."
        },
        {
          "src": "restauro_4",
          "aspect": "portrait",
          "alt": "Uma película em primeiro plano apresenta um negativo fotog´rafico marcado por um 'X'. Ao fundo, diversos negativos estão sobre a mesa de luz."
        }
      ],
      [
        {
          "src": "restauro_8",
          "aspect": "landscape",
          "alt": "Uma garota (Ketlyn) vestindo luvas de latex insere um negativo no scanner de negativos."
        },
        {
          "src": "restauro_9",
          "aspect": "landscape",
          "alt": "Uma garota (Ketlyn) vestindo luvas de latex confere o resultado da digitalização de uma imagem ao computador, enquanto a compara com o negativo em suas mãos."
        }
      ]
    ]
  },
  "conteudos": {
    "page": "conteudos",
    "title": "Os Conteúdos",
    "text": "As imagens são oriundas de registros da própria administração pública e de doações de acervos privados. Elas compõem um importante registro visual da memória da cidade, com suas práticas culturais, seu patrimônio arquitetônico e seus acontecimentos históricos.",
    "images": [
      [
        {
          "src": "391_0",
          "aspect": "square",
          "alt": "Edson Arantes do Nascimento, o Pelé, posa para a foto cercado de homens que o olham."
        },
        {
          "src": "391_1",
          "aspect": "square",
          "alt": "Pelé posa abraçado a outro homem, Luiz Marotti, famoso técnico de futebol da cidade"
        }
      ],
      [
        {
          "src": "391_2",
          "aspect": "square",
          "alt": "Pelé abraça seu pai, Dondinho. Ao lado, um homem sorridente olha para a câmera."
        },
        {
          "src": "391_3",
          "aspect": "square",
          "alt": "Pelé, em frente a uma churrasqueira, come um pedaço de carne direto do espeto. Outros homens, incluindo o churrasqueiro, sorriem."
        }
      ]
    ]
  },
  "arquivo": {
    "page": "arquivo",
    "title": "Conheça o arquivo",
    "text": "As imagens são oriundas de registros da própria administração pública e de doações de acervos privados. Elas compõem um importante registro visual da memória da cidade, com suas práticas culturais, seu patrimônio arquitetônico e seus acontecimentos históricos.",
    "images": [],
    "galleries": [
      {
        "page": "paco",
        "title": "Paço Municipal",
        "text": "Obras de construção do prédio da Prefeitura Municipal.",
        "date": "1967 - 1972",
        "images": [
          [
            {
              "src": "106_0",
              "aspect": "landscape",
              "alt": "Panorâmica exibe obras da fundação do prédio. Trabalhadoes montam uma traba de ferro sobre o chão."
            },
            {
              "src": "106_1",
              "aspect": "landscape",
              "alt": "Tubos metálicos seguram placas de concreto que arrimam a erra ao redor, no que possivelmente contituirá as galerias subterraneas do prédio."
            },
            {
              "src": "329",
              "aspect": "square",
              "alt": "Homen observam um desenho arquitetonico com o projeto do futuro prédio."
            }
          ],
          [
            {
              "src": "725_0",
              "aspect": "landscape",
              "alt": "Diversos andaimes escoram as futuras paredes do prédio da câmara."
            },
            {
              "src": "725_1",
              "aspect": "landscape",
              "alt": "Placas de concreto são instaladas por trabalhadores sobre uma grelha metálica."
            },
            {
              "src": "725_2",
              "aspect": "landscape",
              "alt": "Trabalhadores em primeiro plano cortam madeira. Ao fundo, andaimes escoram as futuras paredes do prédio da câmara."
            },
            {
              "src": "725_3",
              "aspect": "portrait",
              "alt": "Uma grua ergue areia sobre o futuro prédio da câmara."
            },
            {
              "src": "725_4",
              "aspect": "landscape",
              "alt": "Diversos andaimes escoram as futuras paredes do prédio da prefeitura."
            }
          ],
          [
            {
              "src": "626_14",
              "aspect": "landscape",
              "alt": "Homens de terno inspecionam o prédio em construção."
            },
            {
              "src": "626_17",
              "aspect": "landscape",
              "alt": "Homens de terno inspecionam o prédio em construção."
            },
            {
              "src": "626_2",
              "aspect": "landscape",
              "alt": "Homens de terno andam em meio ao prédio em construção."
            },
            {
              "src": "626_4",
              "aspect": "landscape",
              "alt": "Homens de terno inspecionam o prédio em construção."
            },
            {
              "src": "626_5",
              "aspect": "landscape",
              "alt": "Homens de terno inspecionam o prédio em construção."
            }
          ],
          [
            {
              "src": "626_9",
              "aspect": "portrait",
              "alt": "Homens de terno andam em meio ao prédio em construção."
            },
            {
              "src": "626_18",
              "aspect": "landscape",
              "alt": "Andaimes e uma grua rodeiam o prédio da câmara, já em estágio avançado mas ainda em construção."
            },
            {
              "src": "626_19",
              "aspect": "landscape",
              "alt": "O anfitetaro, ainda em construção, revela sua estrutura."
            },
            {
              "src": "626_20",
              "aspect": "landscape",
              "alt": "Homens instalam os acabamentos do anfiteatro."
            }
          ],
          [
            {
              "src": "736",
              "aspect": "square",
              "alt": "Uma panorâmica revela o esqueleto do prédio da prefeitura rodeado de andaimes, enquanto o prédio da câmara e a galeria inferior parecem em estágio avançado de finalização."
            },
            {
              "src": "338",
              "aspect": "square",
              "alt": "Homens posam em frente ao esqueleto do prédio da prefeitura."
            }
          ],
          [
            {
              "src": "123_0",
              "aspect": "landscape",
              "alt": "Um contra-plongeé do prédio da prefeitura, já mais avançado, mas ainda sem vidros."
            },
            {
              "src": "123_1",
              "aspect": "portrait",
              "alt": "Um plano detalhe do prédio da prefeitura, já mais avançado, mas ainda sem vidros."
            },
            {
              "src": "123_2",
              "aspect": "portrait",
              "alt": "Uma foto frontal do prédio da prefeitura, já mais avançado, mas ainda sem vidros."
            },
            {
              "src": "124",
              "aspect": "landscape",
              "alt": "Uma panorâmica do prédio da prefeitura, já mais avançado, mas ainda sem vidros."
            }
          ],
          [
            {
              "src": "123_3",
              "aspect": "landscape",
              "alt": "Uma panorâmica do prédio já praticamente finalizado, mas ainda com andaimes em uma das laterais."
            },
            {
              "src": "123_4",
              "aspect": "landscape",
              "alt": "Uma imagem frontal do prédio já praticamente finalizado, mas ainda com andaimes em uma das laterais."
            },
            {
              "src": "123_5",
              "aspect": "landscape",
              "alt": "Uma panorâmica do prédio já praticamente finalizado, mas ainda com andaimes em uma das laterais."
            }
          ],
          [
            {
              "src": "278_0",
              "aspect": "square",
              "alt": "A lateral do prédio da câmara, finalizado"
            },
            {
              "src": "278_1",
              "aspect": "square",
              "alt": "Imagem frontal do prédio da câmara, finalizado"
            },
            {
              "src": "278_2",
              "aspect": "square",
              "alt": "Vista superior em ângulo do prédio da câmara, finalizado"
            }
          ],
          [
            {
              "src": "907_0",
              "aspect": "landscape",
              "alt": "Uma foto dos espelhos d'água do paço municipal, com o prédio da prefeitura ao fundo."
            },
            {
              "src": "907_1",
              "aspect": "portrait",
              "alt": "Uma vista do prédio da prefeitura à partir de um viadulto."
            },
            {
              "src": "827_0",
              "aspect": "portrait",
              "alt": "Homens estão em frente ao prédio da prefeitura. Há bandeiras dos diversos estados do país."
            },
            {
              "src": "827_1",
              "aspect": "landscape",
              "alt": "Uma multidão se aglomera nas rampas de acesso ao prédio da prefeitura. Há bandeiras dos diversos estados do país."
            }
          ],
          [
            {
              "src": "201",
              "aspect": "landscape",
              "alt": "Uma foto colorida mostra uma panorâmica do paço municipal."
            }
          ]
        ]
      },
      {
        "page": "riacho",
        "title": "Riacho Grande",
        "text": "Vistas de diversos pontos do bairro de Riacho Grande.",
        "date": 1968,
        "images": [
          [
            {
              "src": "666_0",
              "aspect": "square",
              "alt": "Panorâmica revela a repreza Billings cortada por uma extensa ponte."
            },
            {
              "src": "666_1",
              "aspect": "square",
              "alt": "Pessoas aproveitam o dia à beira da repreza. Há vegetação e barcos."
            }
          ],
          [
            {
              "src": "666_2",
              "aspect": "square",
              "alt": "Uma panorâmica revela a repreza. Podemos ver um pequeno barco a remo solitário em meio à água e à vegetação vasta."
            },
            {
              "src": "666_3",
              "aspect": "square",
              "alt": "Diversos barcos estão sobre a repreza."
            }
          ]
        ]
      },
      {
        "page": "fei",
        "title": "Veículos experimentais da FEI",
        "text": "Demonstração de Projetos de Veículos Experimentais dos alunos da FEI",
        "date": "1969 - 1972",
        "transparent": [2],
        "images": [
          [
            {
              "src": "134",
              "aspect": "square",
              "alt": "Um carro de aparência futurista, propulsionado por uma grande hélice, está rodeado de homens que o analizam."
            },
            {
              "src": "184_2",
              "aspect": "landscape",
              "alt": "Um modelo de trem suspenso, com dedign futurista, está em exibição em frente ao prédio do paço municipal."
            }
          ],
          [
            {
              "src": "184_0",
              "aspect": "landscape",
              "alt": "Outro carro de aparência futurista está em exibição em frente ao prédio do paço municipal."
            },
            {
              "src": "184_1",
              "aspect": "landscape",
              "alt": "O mesmo carro de aparência futurista está rodeado de apreciadores."
            }
          ],
          [
            {
              "src": "184_4",
              "aspect": "landscape",
              "alt": "O mesmo carro de aparência futurista, ahora com suas portas abrindo para cima, está rodeado de apreciadores."
            },
            {
              "src": "184_3",
              "aspect": "landscape",
              "alt": "O mesmo carro de aparência futurista fotografado em vista lateral."
            },
            {
              "src": "184_5",
              "aspect": "landscape",
              "alt": "O traseira do carro possui uma placa onde se lê: FEI - Veículo Experimental."
            }
          ]
        ]
      },
      {
        "page": "circo",
        "title": "Circo",
        "text": "Comemoração ao aniversário de São Bernardo do Campo com apresentação de espetáculo circense.",
        "date": 1966,
        "images": [
          [
            {
              "src": "581_0",
              "aspect": "square",
              "alt": "Um homem de terno e gravata está em pé sobre uma moto em movimento."
            },
            {
              "src": "581_1",
              "aspect": "square",
              "alt": "Um grupo de homens de terno e gravata se amontoam sobre uma moto em movimento, em posições inusitadas."
            },
            {
              "src": "581_2",
              "aspect": "square",
              "alt": "Um homem de terno e gravata salta com uma moto através de um arco em chamas."
            }
          ],
          [
            {
              "src": "581_3",
              "aspect": "square",
              "alt": "Um malabarista segura um guarda-chuvas sobre um monocíclo tentando se quilibrar sobre uma corda bamba. Um grupo de palhaços o observa do chão."
            },
            {
              "src": "581_4",
              "aspect": "square",
              "alt": "Um palhaço, em primeiro plano, guia toda a trupe de artistas do circo em procissão."
            }
          ],
          [
            {
              "src": "581_5",
              "aspect": "square",
              "alt": "Duas malabaristas posam vestindo seus collants e segurando os malabares."
            },
            {
              "src": "581_6",
              "aspect": "square",
              "alt": "O palhaço está ajoelhado em frente a um grupo de mulheres, todas vestindo seus collants."
            }
          ]
        ]
      },
      {
        "page": "esportes",
        "title": "Esportes",
        "text": "Torneios Esportivos de Modalidades Variadas",
        "date": "diversas datas",
        "images": [
          [
            {
              "src": "1118_10",
              "aspect": "landscape",
              "alt": "Uma garota joga tênis de mesa, em primeiro plano."
            },
            {
              "src": "1118_11",
              "aspect": "landscape",
              "alt": "Uma garota joga tênis de mesa, em primeiro plano."
            },
            {
              "src": "393_12",
              "aspect": "square",
              "alt": "Dois rapazes jogam tênis de mesa, rodeados de espectadores."
            }
          ],
          [
            {
              "src": "673_1",
              "aspect": "square",
              "alt": "Um grupo de mulheres com uniformes listrados está numa quadra de basquete. A arquibancada possui diversos espectadores."
            }
          ],
          [
            {
              "src": "1118_5",
              "aspect": "portrait",
              "alt": "Uma mulher de uniforme listrado arremeça a bola à cesta enquanto outra, de uniforme liso, salta tentando bloquea-la. outras jogaroas as rodeiam."
            },
            {
              "src": "1118_7",
              "aspect": "portrait",
              "alt": "Uma mulher de uniforme liso e com uma bola de basquete em mãos dribla três mulheres de uniforme listrado."
            }
          ],
          [
            {
              "src": "717_4",
              "aspect": "square",
              "alt": "Um grupo de homens posa sobre uma pista de bocha"
            },
            {
              "src": "717_3",
              "aspect": "square",
              "alt": "Um homem arremessa uma bola de bocha enquanto os demais observam."
            }
          ],
          [
            {
              "src": "473_6",
              "aspect": "landscape",
              "alt": "Homens lutam judô, observados por outros judocas ao redor."
            },
            {
              "src": "393_13",
              "aspect": "square",
              "alt": "Uma senhora e uma garota posam atráz de um tabuleiro de xadrês."
            }
          ]
        ]
      },
      {
        "page": "aldeia",
        "title": "Aldeia",
        "text": "Visita à Aldeia Indígena Guarani Mbya Tenondé Porã",
        "date": 2002,
        "images": [
          [
            {
              "src": "11311_1",
              "aspect": "landscape",
              "alt": "Diversos carros estão posicionados sobre uma balsa, aguardando a travessia."
            },
            {
              "src": "11311_4",
              "aspect": "landscape",
              "alt": "Uma oca em meio a um belo cenário de árvores e crianças brincando."
            }
          ],
          [
            {
              "src": "11311_9",
              "aspect": "landscape",
              "alt": "Uma mulher branca posa com duas mulheres indigenas. Um homem indígena as filma. Há muitas pessoas de diferentes etnias am volta."
            },
            {
              "src": "11311_10",
              "aspect": "landscape",
              "alt": "Duas mulheres brancas posam com um grupo de pessoas indígenas."
            }
          ],
          [
            {
              "src": "11311_12",
              "aspect": "landscape",
              "alt": "Dentro de uma oca, diversas crianças indígenas vestindo roupas típicas rodeiam um totem que contem um cocar e diveras penas de tonalidade amarela."
            },
            {
              "src": "11311_13",
              "aspect": "landscape",
              "alt": "Dentro de uma oca, diversas pessoas indígenas dançam em formação circular."
            },
            {
              "src": "11311_14",
              "aspect": "landscape",
              "alt": "Dentro de uma oca, diversas pessoas indígenas dançam em formação circular. Diversas pessoas não indígenas as observam."
            },
            {
              "src": "11311_16",
              "aspect": "landscape",
              "alt": "Dentro de uma oca e em frente a um totem que contem um cocar e diveras penas de tonalidade amarela, uma mulher branca posa com diversas pessoas indígenas vestindo roupas típicas."
            }
          ]
        ]
      },
      {
        "page": "arvores",
        "title": "Árvores",
        "text": "'Dia da Árvore' é comemorado na esplanada do Paço Municipal, com evento de plantio de árvores.",
        "date": 1971,
        "images": [
          [
            {
              "src": "637_3",
              "aspect": "square",
              "alt": "Crianças brincam com bolas nos jardins do paço municipal."
            },
            {
              "src": "637_4",
              "aspect": "square",
              "alt": "Crianças fantasiadas de flor dançam em formação circular nos jardins do paço municipal. Adultos ao redor as assistem."
            },
            {
              "src": "637_5",
              "aspect": "square",
              "alt": "Crianças fantasiadas de flor encenam uma eça nos jardins do paço municipal. Otras crianças ao redor as assistem."
            },
            {
              "src": "637_6",
              "aspect": "square",
              "alt": "Crianças fantasiadas de flor encenam uma eça nos jardins do paço municipal. Diversas pessoas ao redor as assistem."
            }
          ],
          [
            {
              "src": "637_14",
              "aspect": "square",
              "alt": "Crianças rodeiam o prefeito e um funcionário da prefeitura, que seguram uma muda de árvore em frente ao prédio da câmara de vereadores."
            },
            {
              "src": "637_19",
              "aspect": "square",
              "alt": "Funcionários da prefeitura plantam uma muda de árvore, enquanto um grupo de homens com ternos os observam."
            },
            {
              "src": "637_20",
              "aspect": "square",
              "alt": "Um homem de terno cava um buraco, enquanto um funcionário da prefeitura o auzilia, segurando uma muda de árvore. Outros homens de terno o observam."
            }
          ],
          [
            {
              "src": "637_18",
              "aspect": "square",
              "alt": "Uma senhora bem vestida cobre a árvore recém plantada com terra, utilizando uma enxada. Diversas pessoas bem vestidas e dois funcionários da prefeitura a observam."
            },
            {
              "src": "637_22",
              "aspect": "square",
              "alt": "Uma senhora bem vestida cobre a árvore recém plantada com terra. Ela está rodeada por muitas pessoas."
            },
            {
              "src": "637_23",
              "aspect": "square",
              "alt": "Uma senhora bem vestida cobre a árvore recém plantada com terra, utilizando uma enxada. Diversas pessoas bem vestidas a observam."
            },
            {
              "src": "637_26",
              "aspect": "square",
              "alt": "Um regador derrama água sobre a árvore recém plantada. Há uma placa que diz: Tara Spinosa – Pau Brasil"
            }
          ]
        ]
      },
      {
        "page": "granja",
        "title": "Granja",
        "text": "Vista a Granja no Bairro Alvarenga",
        "date": 1973,
        "transparent": [0, 1, 2],
        "images": [
          [
            {
              "src": "1178_28",
              "aspect": "landscape",
              "alt": "Uma senhora de traços orientais pedala uma bicileta em meio a corredores repletos de galinhas empoleiradas. Ela carrega duas crianças pequenas também de feições orientais no cesto da bicileta."
            },
            {
              "src": "1178_29",
              "aspect": "landscape",
              "alt": "Uma senhora de traços orientais pedala uma bicileta em meio a corredores repletos de galinhas empoleiradas. Ela carrega duas crianças pequenas também de feições orientais no cesto da bicileta."
            },
            {
              "src": "1178_6",
              "aspect": "landscape",
              "alt": "Uma senhora de traços orientais pedala uma bicileta em meio a corredores repletos de galinhas empoleiradas. Ela carrega duas crianças pequenas também de feições orientais no cesto da bicileta."
            },
            {
              "src": "1178_23",
              "aspect": "landscape",
              "alt": "Uma senhora de traços orientais pedala uma bicileta em meio a corredores repletos de galinhas empoleiradas. Ela carrega duas crianças pequenas também de feições orientais no cesto da bicileta."
            }
          ],
          [
            {
              "src": "1178_9",
              "aspect": "landscape",
              "alt": "Diversas cabeças de galinha atravessam as rústicas grades que as confinam, buscando alimentar-se do milho que foi depositado à sua frente."
            },
            {
              "src": "1178_11",
              "aspect": "landscape",
              "alt": "Diversas cabeças de galinha atravessam as rústicas grades que as confinam, buscando alimentar-se do milho que foi depositado à sua frente."
            },
            {
              "src": "1178_25",
              "aspect": "landscape",
              "alt": "Uma fileira de galinhas confinadas em rústicas jaulas de madeira."
            },
            {
              "src": "1178_27",
              "aspect": "landscape",
              "alt": "Um corredor com duas longas fileiras de galinhas confinadas em rústicas jaulas de madeira."
            },
            {
              "src": "1178_24",
              "aspect": "landscape",
              "alt": "Um corredor com duas longas fileiras de galinhas confinadas em rústicas jaulas de madeira."
            }
          ],
          [
            {
              "src": "1178_22",
              "aspect": "landscape",
              "alt": "Um homem colhe ovos, caminhando pelo extenso corredor com duas longas fileiras de galinhas confinadas em rústicas jaulas de madeira."
            },
            {
              "src": "1178_14",
              "aspect": "portrait",
              "alt": "Uma mulher de feições orientais e vestimentas estampadas conta os ovos em uma cesta. Ao seu lado, ouma lousa têm inscrições em ideograma japonês."
            },
            {
              "src": "1178_15",
              "aspect": "portrait",
              "alt": "Uma mulher de feições orientais coleta ovos que saem de uma máquina. A sua volta vemos diversas bandejas de ovos."
            },
            {
              "src": "1178_17",
              "aspect": "landscape",
              "alt": "Uma mulher de feições orientais e vestimentas estampadas conta os ovos em uma cesta. Ao seu lado, ouma lousa têm inscrições em ideograma japonês."
            },
            {
              "src": "1178_19",
              "aspect": "landscape",
              "alt": "Uma mulher de feições orientais e vestimentas estampadascarrega uma cesta de ovos e a deposita numa caixa. Duas crianças de feições orientais estão sentadas na caixa."
            }
          ]
        ]
      },
      {
        "page": "artes",
        "title": "Artes Plásticas",
        "text": "Exposições da Associação Sambernardense de Belas Artes - ASBA",
        "date": "1967 - 1969",
        "images": [
          [
            {
              "src": "576_1",
              "aspect": "landscape",
              "alt": "Diversas mulheres estão em pé desenhando sobre cavaletes. Um homem de terno as supervisiona."
            },
            {
              "src": "576_2",
              "aspect": "landscape",
              "alt": "Uma mulher, em pé, desenha em um papel apoiado em um cavalete. A sua frente uma garota de saia branca e blusa de lã escura senta-se dobre uma banqueta, posando."
            }
          ],
          [
            {
              "src": "376_3",
              "aspect": "square",
              "alt": "Duas mulheres observam gravuras que representam estátuas, um rosto e um busto feminino nú, desenhados em estilo modernista."
            },
            {
              "src": "574_2",
              "aspect": "square",
              "alt": "Diversas pessoas observam uma estátua modernista que reprensta um boi."
            },
            {
              "src": "574_4",
              "aspect": "square",
              "alt": "Dois homens apreciam um conjunto de quadros modernista representando pessoas agaixadas"
            },
            {
              "src": "574_5",
              "aspect": "square",
              "alt": "Dois homens apreciam uma estatua de estilo classico, representando uma mulher nua carregando seu bebê."
            }
          ]
        ]
      },
      {
        "page": "criancas",
        "title": "Parque Infantil",
        "text": "Vistas de Parques Infantis nos bairros Parque São Pedro, Vila Paulicéia e Taboão",
        "date": 1967,
        "transparent": [1],
        "images": [
          [
            {
              "src": "236_1",
              "aspect": "landscape",
              "alt": "Crianças brincam felizes em um balanço de quatro assentos."
            },
            {
              "src": "236_2",
              "aspect": "landscape",
              "alt": "Crianças brincam felizes em gangorras, supervisionadas por duas mulheres adultas."
            },
            {
              "src": "236_3",
              "aspect": "landscape",
              "alt": "Um plano lateral exibe crianças bruncando em gangorras e balanços."
            }
          ],
          [
            {
              "src": "237_1",
              "aspect": "landscape",
              "alt": "Crianças correm em direção a um trepa-trepa."
            },
            {
              "src": "237_2",
              "aspect": "landscape",
              "alt": "Muitas crianças escalam o trepa-trepa oao mesmo tempo."
            },
            {
              "src": "237_3",
              "aspect": "landscape",
              "alt": "Muitas crianças escalam o trepa-trepa oao mesmo tempo. Ao lado, uma mulher adulta as observa."
            },
            {
              "src": "96_13",
              "aspect": "portrait",
              "alt": "Muitas crianças se amontoam no topo do trepa-trepa. No chão, um garoto sorridente acena com um sinal de jóia."
            }
          ],
          [
            {
              "src": "272_1",
              "aspect": "landscape",
              "alt": "Diversas crianças brincam num parque contendo balanços, gangorras e um escorregador."
            },
            {
              "src": "272_2",
              "aspect": "landscape",
              "alt": "Diversas crianças brincam num parque contendo balanços, gangorras e um escorregador. Uma mulher adulta os observa."
            },
            {
              "src": "272_3",
              "aspect": "landscape",
              "alt": "Diversas crianças brincam num parque contendo balanços, gangorras e um escorregador."
            }
          ]
        ]
      },
      {
        "page": "desfile",
        "title": "Desfile Cívico",
        "text": "Desfile Cívico comemoração ao aniversário da Indepêndencia do Brasil",
        "date": 1970,
        "transparent": [0, 1, 2, 3],
        "images": [
          [
            {
              "src": "1419_4",
              "aspect": "landscape",
              "alt": "Dois homens seguram uma placa onde se lê: o sentimento ancional"
            },
            {
              "src": "1419_5",
              "aspect": "portrait",
              "alt": "Pessoas andam enfileiradas portando placas ilegíveis em meio a diversas bandeiras do Estado de São Pualo."
            },
            {
              "src": "1419_23",
              "aspect": "landscape",
              "alt": "Mulheres desfilam portando flores."
            }
          ],
          [
            {
              "src": "1419_7",
              "aspect": "landscape",
              "alt": "Um carro alegórico exibe um garoto que está com sua cabeça em uma forca. Outros garotos o observam. Pessoas ao fundo assistem a cena."
            },
            {
              "src": "1419_8",
              "aspect": "landscape",
              "alt": "Dois homens seguram uma placa onde se lê: Inconfidência Mineira. Ao lado, uma banda se alinha com instrumentos de percussão."
            },
            {
              "src": "1419_9",
              "aspect": "landscape",
              "alt": "Um carro alegórico carrega várias mulheres, duas vestidas de roupas caricaturais de índio, duas com roupas caricaturais de umbanda, outyras duas com roupas de gala. Há uma placa onde se lê: Elementos formadores do povo Brasileiro, o Índio, o Branco e o Negro."
            },
            {
              "src": "1419_22",
              "aspect": "landscape",
              "alt": "Mulheres desfilam com roupas caricaturais de diversos paísas, com faixas que os identificam: Síria, etc. Ao fundo lê-se numa placa: A Independência – O Grito no Ipiranga."
            },
            {
              "src": "1419_24",
              "aspect": "landscape",
              "alt": "Mulheres desfilam portando bandeiras dos diversos estados da federação."
            }
          ],
          [
            {
              "src": "1419_11",
              "aspect": "landscape",
              "alt": "Crianças com chapéus feitos de jornal e roupas escolares desfilam com pequenas bandeirinhas do Brasil."
            },
            {
              "src": "1419_16",
              "aspect": "landscape",
              "alt": "Crianças com chapéus feitos de jornal e roupas escolares desfilam arrastando biciletas idênticas, todas adornadas com pequenas bandeirinhas do Brasil."
            },
            {
              "src": "1419_21",
              "aspect": "landscape",
              "alt": "Meninas carregam uma faixa onde se lê: Ninguém segura o Brasil."
            },
            {
              "src": "1419_19",
              "aspect": "landscape",
              "alt": "Uma mulher de vestido porta uma bandeira do Brasil sobre um carro alegórico. Atrás dela há uma escultura em formado de abóboda. Ao fundo se lê: Brasil, ame-o ou deixe-o"
            },
            {
              "src": "1419_20",
              "aspect": "portrait",
              "alt": "Duas mulheres jovens de bestido posam sobre um carro alegórico. Ao fundo se lê: Brasil, ame-o ou deixe-o"
            }
          ],
          [
            {
              "src": "1419_13",
              "aspect": "landscape",
              "alt": "Uma banda fardada toca seus metais para um grupo de espectadores, protegidos do sol em um gazebo."
            },
            {
              "src": "1419_29",
              "aspect": "landscape",
              "alt": "Uma banda fardada toca seus metais para uma grande quantidade de espectadores."
            },
            {
              "src": "1419_33",
              "aspect": "landscape",
              "alt": "Militares fardados desfilam tocando tambores. Seus pés se alinham em marcha."
            },
            {
              "src": "1419_32",
              "aspect": "landscape",
              "alt": "Militares fardados marcham, observados pelos espectadores ao redor."
            }
          ]
        ]
      },
      {
        "page": "sindicato",
        "title": "Sindicato dos Metalúrgicos de SBC",
        "text": "Posse do segundo mandato de Luiz Inacio 'Lula' da Silva como Presidente do Sindicato dos Metalurgicos de São Bernardo do Campo.",
        "date": 1978,
        "images": [
          [
            {
              "src": "7189_1",
              "aspect": "landscape",
              "alt": "Sindicalistas estão sentados em uma mesa, olhando a grande multidão de pessoas a sua frente no salão do sindicato."
            },
            {
              "src": "7189_23",
              "aspect": "landscape",
              "alt": "Um sindicalista discursa olhando a grande multidão de pessoas a sua frente no salão do sindicato."
            },
            {
              "src": "7189_37",
              "aspect": "landscape",
              "alt": "Um sindicalista discursa, enquanto outros estão sentado em uma mesa sobre um palco. Há uma grande multidão de pessoas a sua frente no salão do sindicato."
            },
            {
              "src": "7189_4",
              "aspect": "landscape",
              "alt": "Sindicalistas estão sentados em uma mesa, olhando a grande multidão de pessoas a sua frente no salão do sindicato."
            }
          ],
          [
            {
              "src": "7189_40",
              "aspect": "landscape",
              "alt": "Um sindicalista discursa em posição caricatural. À mesa há outros sindicalistas que o observam."
            },
            {
              "src": "7189_46",
              "aspect": "landscape",
              "alt": "O sildicalista que discursava vai à mesa e comprimenta Luiz Inácio 'Lula' da Silva, que está no centro."
            },
            {
              "src": "7189_11",
              "aspect": "landscape",
              "alt": "Luiz Inácio 'Lula' da Silva, em pé ao centro da mesa, recebe um documento das mão do sindicalista que o cumprimetou. Há diversas pessoas que os observam. Ao fundo há duas bandeiras, uma à esquerda, do estado de São Paulo, e outra ao centro, do Brasil."
            },
            {
              "src": "7189_25",
              "aspect": "landscape",
              "alt": "Luiz Inácio 'Lula' da Silva, em pé ao centro da mesa, abraça o sindicalista que o cumprimetou. Ambos sorriem. Há diversas pessoas que os observam. Ao fundo há duas bandeiras, uma à esquerda, do estado de São Paulo, e outra ao centro, do Brasil."
            },
            {
              "src": "7189_30",
              "aspect": "landscape",
              "alt": "Luiz Inácio 'Lula' da Silva, em pé ao centro da mesa, abraça o sindicalista que o cumprimetou. Ambos sorriem. Há diversas pessoas que os observam. Ao fundo há duas bandeiras, uma ao centro, do Brasil, e outra à direta, da cidade de São Bernardo do Campo."
            },
            {
              "src": "7189_42",
              "aspect": "landscape",
              "alt": "Luiz Inácio 'Lula' da Silva discursa enquanto diversos sindicalistas à mesa o observam."
            }
          ],
          [
            {
              "src": "7189_6",
              "aspect": "landscape",
              "alt": "Luiz Inácio 'Lula' da Silva e outros dois sindicalistas posam para a foto em pé, atrás da mesa. Há flores em primeiro plano. Ao fundo, vemos três bandeiras: uma à esquerda, do estado de São Paulo, outra ao centro, do Brasil, e outra à direta, da cidade de São Bernardo do Campo."
            },
            {
              "src": "7189_8",
              "aspect": "landscape",
              "alt": "Luiz Inácio 'Lula' da Silva e outro sindicalista posam para a foto em pé, atrás da mesa. Há flores em primeiro plano. Ao fundo, vemos três bandeiras: uma à esquerda, do estado de São Paulo, outra ao centro, do Brasil, e outra à direta, da cidade de São Bernardo do Campo."
            },
            {
              "src": "7189_13",
              "aspect": "landscape",
              "alt": "Luiz Inácio 'Lula' da Silva e os outros sindicalistas estão em pé, alinhados."
            },
            {
              "src": "7189_27",
              "aspect": "landscape",
              "alt": "Luiz Inácio 'Lula' da Silva e outros três sindicalistas posam para a foto em pé, atrás da mesa. Há flores em primeiro plano. Ao fundo, vemos três bandeiras: uma à esquerda, do estado de São Paulo, outra ao centro, do Brasil, e outra à direta, da cidade de São Bernardo do Campo."
            },
            {
              "src": "7189_28",
              "aspect": "landscape",
              "alt": "Luiz Inácio 'Lula' da Silva e diversos outros sindicalistas se alinham em pé, atrás da mesa. Há flores sobre a mesa encobrindo parcialmente uma bandeira do sindicato. Ao fundo, vemos três bandeiras: uma à esquerda, do estado de São Paulo, outra ao centro, do Brasil, e outra à direta, da cidade de São Bernardo do Campo."
            },
            {
              "src": "7189_29",
              "aspect": "landscape",
              "alt": "Luiz Inácio 'Lula' da Silva e diversos outros sindicalistas se alinham em pé, atrás da mesa. Há flores sobre a mesa encobrindo parcialmente uma bandeira do sindicato. Ao fundo, vemos três bandeiras: uma à esquerda, do estado de São Paulo, outra ao centro, do Brasil, e outra à direta, da cidade de São Bernardo do Campo."
            }
          ]
        ]
      },
      {
        "page": "agua",
        "title": "Estação de Tratamento de Água",
        "text": "Alunos do Instituto de Educação João Ramalho visitam Departamento de Água e Esgoto.",
        "date": 1969,
        "images": [
          [
            {
              "src": "679_2",
              "aspect": "square",
              "alt": "Um grupo de meninas em uniformes observam um grande tanque contendo água suja."
            },
            {
              "src": "679_3",
              "aspect": "square",
              "alt": "Um grupo de meninas em uniformes observam um homem mais velho que fala. Estão posicionadas em frente a dois grandes tanques de água limpa. Ao fundo, vemos a repreza Billings."
            }
          ],
          [
            {
              "src": "679_4",
              "aspect": "square",
              "alt": "Um grupo de meninas em uniformes caminham por um corredor. Nele se vê um enorme duto metálico e diversas máquinas."
            },
            {
              "src": "679_5",
              "aspect": "square",
              "alt": "Um grupo de meninas se apoia sobre um gusrda-corpo, tentando observar dentro de um grande tanque de água limpa."
            }
          ]
        ]
      },
      {
        "page": "fantasias",
        "title": "Fantasias",
        "text": "Crianças se Fantasiam de Alimentos em Carro Alegórico por Motivo do Desfile em Comemoração ao 418 Aniversário da Cidade de São Bernardo do Campo",
        "date": 1971,
        "images": [
          [
            {
              "src": "632_36",
              "aspect": "portrait",
              "alt": "Uma criança fantasiada de beterraba."
            },
            {
              "src": "632_37",
              "aspect": "portrait",
              "alt": "Uma criança fantasiada de banana sorri em frente a uma escultura em formato de cubo."
            },
            {
              "src": "632_38",
              "aspect": "portrait",
              "alt": "Uma criança fantasiada de cenoura em frente a uma escultura em formato de cubo. Ao fundo há outras crianças fantasiadas de alimentos."
            },
            {
              "src": "632_39",
              "aspect": "portrait",
              "alt": "Uma criança fantasiada de breinjela sorr em frente a uma criança fantasiada de batata."
            }
          ],
          [
            {
              "src": "632_51",
              "aspect": "landscape",
              "alt": "Diversas crianças fantasiadas de alimentos se alinham sobre carro alegórico onde há uma escultura cúbica e outra semelhante a um enorme cesto."
            },
            {
              "src": "632_61",
              "aspect": "landscape",
              "alt": "Diversas crianças fantasiadas de alimentos se alinham sobre carro alegórico onde há uma escultura cúbica e outra semelhante a um enorme cesto."
            }
          ],
          [
            {
              "src": "632_43",
              "aspect": "portrait",
              "alt": "Uma criança fantasiada de batata doce."
            },
            {
              "src": "632_47",
              "aspect": "portrait",
              "alt": "Uma criança fantasiada de mandioca."
            },
            {
              "src": "632_50",
              "aspect": "portrait",
              "alt": "Uma criança fantasiada de garrafa de leite. Em sua roupa há o desenho de uma vaca e a inscrição: Leite."
            },
            {
              "src": "632_57",
              "aspect": "portrait",
              "alt": "Uma criança fantasiada de mandioca."
            }
          ],
          [
            {
              "src": "632_62",
              "aspect": "portrait",
              "alt": "Uma criança fantasiada de abóbora"
            },
            {
              "src": "632_63",
              "aspect": "portrait",
              "alt": "Uma criança fantasiada de ovo."
            },
            {
              "src": "632_68",
              "aspect": "portrait",
              "alt": "Uma criança fantasiada de jiló"
            },
            {
              "src": "632_69",
              "aspect": "portrait",
              "alt": "Uma criança fantasiada de beterraba."
            },
            {
              "src": "632_83",
              "aspect": "portrait",
              "alt": "Uma criança fantasiada de milho."
            }
          ],
          [
            {
              "src": "632_70",
              "aspect": "portrait",
              "alt": "Uma criança fantasiada de chuchu."
            },
            {
              "src": "632_77",
              "aspect": "portrait",
              "alt": "Uma criança fantasiada de tomate."
            },
            {
              "src": "632_80",
              "aspect": "portrait",
              "alt": "Uma criança fantasiada de morango sorri para a câmera."
            },
            {
              "src": "632_82",
              "aspect": "portrait",
              "alt": "Uma criança fantasiada de batata."
            }
          ]
        ]
      },
      {
        "page": "diretas",
        "title": "Diretas Já",
        "text": "Greve Geral dos Metalurgicos de SBC em Favor das Eleições Diretas - Participação da CUT",
        "date": 1984,
        "images": [
          [
            {
              "src": "2931_1",
              "aspect": "landscape",
              "alt": "Diversos cartazes estão pendurados às paredes do prédio da prefeitura. Neles lê-se: Greve geral, contra a fome e pelas diretas. Há bandeiras do PT e o PCB."
            },
            {
              "src": "2931_2",
              "aspect": "landscape",
              "alt": "Homens seguram cartaz: Diretas, urgente!"
            }
          ],
          [
            {
              "src": "2931_3",
              "aspect": "portrait",
              "alt": "Muitas pesoas se aglomeram em frente a um palco construído sobre o prédio da prefeitura."
            },
            {
              "src": "2931_4",
              "aspect": "landscape",
              "alt": "Uma mulher discursa sobre o palco. Muitas pesoas se aglomeram a sua frente."
            }
          ],
          [
            {
              "src": "2931_7",
              "aspect": "landscape",
              "alt": "Sindicalistas estão alinhados em frente a uma enorme bandeira da CUT. Um deles discursa. Há folhetos onde se lê: 1º Congresso Nacional"
            },
            {
              "src": "2931_9",
              "aspect": "landscape",
              "alt": "Muitas pessoas estão sentadas no chão. Há um grande cartaz onde se lê: Diretas Já."
            }
          ]
        ]
      },
      {
        "page": "cidade",
        "title": "Cidade das Crianças",
        "text": "Comemoração da Semana da Criança com a posse dos Prefeitos Mirins da Cidade das Crianças.",
        "date": 1969,
        "images": [
          [
            {
              "src": "640_2",
              "aspect": "square",
              "alt": "Crianças se aglomeram em um jardim."
            },
            {
              "src": "640_4",
              "aspect": "square",
              "alt": "Crianças se aglomeram em um jardim, em meio a árvores."
            },
            {
              "src": "640_5",
              "aspect": "square",
              "alt": "Crianças correm em um jardim, em meio a árvores."
            }
          ],
          [
            {
              "src": "640_8",
              "aspect": "square",
              "alt": "Crianças estão sentadas em uma plataforma. À sua frente, um trem aberto exibe uma banda fardada com instrumentos de sopro à mostra."
            },
            {
              "src": "640_10",
              "aspect": "square",
              "alt": "Bonecos imitando os personagens da turma do mônica: Horácio, Chico Bento, Magali e Cascão."
            }
          ],
          [
            {
              "src": "640_17",
              "aspect": "square",
              "alt": "Um garoto em roupa social e gravata discursa ao microfone. Ao seu redor há outras crianças em roupa social. Os adultos se alinham atrás deles."
            },
            {
              "src": "640_22",
              "aspect": "square",
              "alt": "Um garoto em roupa social e gravata assina um documento. O prefeito o outros adultos o observam."
            },
            {
              "src": "640_24",
              "aspect": "square",
              "alt": "Um garoto em roupa social e gravata assina um documento. Ao seu lado, sobre a mesa, há uma enorme chave de ferro."
            }
          ],
          [
            {
              "src": "640_27",
              "aspect": "square",
              "alt": "O prefeito e desenas de crianças estão sentados nos vagões do trem."
            },
            {
              "src": "640_33",
              "aspect": "square",
              "alt": "Desenas de crianças se amontoam sobre o caminhão dos bombeiros."
            }
          ]
        ]
      },
      {
        "page": "carnaval",
        "title": "Carnaval",
        "text": "Carnaval de Rua e Desfile de Escola de Samba",
        "date": "1968, 1970 e 1997",
        "images": [
          [
            {
              "src": "474_1",
              "aspect": "landscape",
              "alt": "Duas mulheres fantasiadas com penas brancas."
            },
            {
              "src": "474_2",
              "aspect": "portrait",
              "alt": "Duas crianças negras com roupas de época."
            },
            {
              "src": "474_10",
              "aspect": "portrait",
              "alt": "Uma mulher negra de vestidos longos dança carregando uma bandeira."
            },
            {
              "src": "474_17",
              "aspect": "landscape",
              "alt": "Um homem e uma mulher com ropas de realeza dançam em frente ao público. A mulher sorri para a câmera."
            },
            {
              "src": "474_24",
              "aspect": "landscape",
              "alt": "Uma mulher com flores na cabeça sorri, abaixando-se. Dois homens brancos sem fantasia dançam sorridentes ao seu lado."
            }
          ],
          [
            {
              "src": "474_26",
              "aspect": "landscape",
              "alt": "Uma mulher negra de vestidos longos dança carregando uma bandeira."
            },
            {
              "src": "474_27",
              "aspect": "landscape",
              "alt": "Um homem e uma mulher com ropas de realeza caminahm em pose aristocrática."
            },
            {
              "src": "474_40",
              "aspect": "landscape",
              "alt": "Dois homen negros carregam uma faixa que diz: Grupo Folclórico em Homenagem a Xangô Obanire. 1968."
            },
            {
              "src": "474_41",
              "aspect": "portrait",
              "alt": "Uma mulher negra de vestidos longos segura um estandarte em frente à multidão que a assiste."
            },
            {
              "src": "474_22",
              "aspect": "landscape",
              "alt": "Garotas negras dançam animadamente em frente a membros do poder público. COnfetes voam sobre o prefeito."
            },
            {
              "src": "474_42",
              "aspect": "landscape",
              "alt": "Confetes voam sobre o público animado."
            }
          ],
          [
            {
              "src": "474_14",
              "aspect": "portrait",
              "alt": "Um garoto negro de fraque e cartola toca um piano cênico."
            },
            {
              "src": "474_25",
              "aspect": "landscape",
              "alt": "Três garotos negros de fraque, cartola e bengala caminham."
            },
            {
              "src": "474_52",
              "aspect": "landscape",
              "alt": "Pessoas vestidas de orixa estão sobre carro alegórico. Ao centro, yemanjá."
            }
          ],
          [
            {
              "src": "474_36",
              "aspect": "landscape",
              "alt": "Pessoas dançam pelas ruas."
            },
            {
              "src": "474_37",
              "aspect": "landscape",
              "alt": "Muitas pessoas dançam pelas ruas."
            },
            {
              "src": "474_38",
              "aspect": "landscape",
              "alt": "Muitas pessoas dançam pelas ruas."
            },
            {
              "src": "474_39",
              "aspect": "landscape",
              "alt": "Um homem negro e uma mulher negra dançam animadamente, rodeados por diversas pessoas que os assistem."
            },
            {
              "src": "474_44",
              "aspect": "landscape",
              "alt": "Duas mulheres fantasiadas com penas brancas tocam tambor."
            }
          ],
          [
            {
              "src": "474_29",
              "aspect": "portrait",
              "alt": "Duas pessoas negras com fantasia de indígena dançam em frente a um carro alegórico em forma de navio tem a faixa dizendo: Navio Negreiro."
            },
            {
              "src": "474_30",
              "aspect": "landscape",
              "alt": "Um carro alegórico em forma de navio tem a faixa dizendo: Navio Negreiro."
            },
            {
              "src": "474_31",
              "aspect": "landscape",
              "alt": "Um homem fantasiado maneja o timão do carro alegórico em forma de navio tem a faixa dizendo: Navio Negreiro."
            },
            {
              "src": "474_32",
              "aspect": "portrait",
              "alt": "Um homem negro posa em frente a uma estátua onde se lê: Castro Alves"
            }
          ],
          [
            {
              "src": "474_4",
              "aspect": "landscape",
              "alt": "Um homem arrasta um canhão cênico."
            },
            {
              "src": "474_21",
              "aspect": "portrait",
              "alt": "Um homem branco com roupas aristocráticas posa animadamente em frente a um totem onde se lê: Legião Paulista. Um homem negro com vestes militares, ao fundo, maneja um canhão cênico."
            },
            {
              "src": "474_47",
              "aspect": "landscape",
              "alt": "Um homem negro vestido de militar do século XVIII posa para a foto. Atrás dele, um homem branco e uma mulher branca, ambos com roupas aristocráticas, posam animadamente em frente a um totem contendo o desenho de um militar."
            },
            {
              "src": "474_48",
              "aspect": "landscape",
              "alt": "Um homem branco com roupas de rei posa em frente a um totem onde se lê: Legião Paulista. Um homem negro com vestes militares, ao fundo, maneja um canhão cênico."
            }
          ],
          [
            {
              "src": "585_3",
              "aspect": "landscape",
              "alt": "Três homens negros com vestes brancas tocam instrumentos similares a frigideiras ajoelhados no chão."
            },
            {
              "src": "585_7",
              "aspect": "landscape",
              "alt": "Diversos homens negros de vestes brancas tocam seus intrumentos. À frente, dois deles estão abaixados em poses acrobáticas."
            },
            {
              "src": "585_10",
              "aspect": "landscape",
              "alt": "Um homem negro está deitado no chão, chacoalhando as pernas no ar, com pandeiro em punhos. Outro homem dança ao seu lado. À sua volta há diversas pessoas com tambores em punho."
            },
            {
              "src": "585_12",
              "aspect": "portrait",
              "alt": "Um homem negro com vestes brancas toca um instrumento similar a uma frigideira deitado no chão em pose acrobática. Ao seu redor, muitas pessoas dançam."
            },
            {
              "src": "585_11",
              "aspect": "landscape",
              "alt": "Um homem negro com vestes brancas toca um pandeiro deitado no chão em pose acrobática. Ao seu redor, muitas pessoas dançam."
            }
          ],
          [
            {
              "src": "585_19",
              "aspect": "landscape",
              "alt": "Pessoas fantasiadas desfilam numa avenida em frente a espectadores."
            },
            {
              "src": "585_20",
              "aspect": "landscape",
              "alt": "Pessoas fantasiadas desfilam numa avenida em frente a espectadores."
            },
            {
              "src": "585_21",
              "aspect": "landscape",
              "alt": "Pessoas fantasiadas desfilam numa avenida em frente a espectadores. Alguém segura um estanadrte onde se lê: Vila Rosa SBC"
            },
            {
              "src": "585_22",
              "aspect": "landscape",
              "alt": "Pessoas fantasiadas desfilam numa avenida em frente a espectadores. Alguém segura um estanadrte onde se lê: Vila Rosa SBC"
            },
            {
              "src": "585_23",
              "aspect": "landscape",
              "alt": "Crianças fantasiadas desfilam numa avenida em frente a espectadores."
            }
          ],
          [
            {
              "src": "10193_3",
              "aspect": "landscape",
              "alt": "Mulheres com roupas alegóricas giram, assistidas por pessoas numa platéia"
            },
            {
              "src": "10193_8",
              "aspect": "portrait",
              "alt": "Um carro alegórico exibe pessoas com roupas inspiradas em vestes tradicionais africanas dançando em meio a zebras cenográficas"
            },
            {
              "src": "10193_12",
              "aspect": "landscape",
              "alt": "Um carro alegórico exibe pessoas com roupas de penas brancas dançando em meio a anjos cênicos. O letreiro diz: União."
            },
            {
              "src": "10193_14",
              "aspect": "landscape",
              "alt": "Uma garota pequena dança na frente de uma mulher negra com roupas carnavalescas e uma faixa de rainha."
            },
            {
              "src": "10193_16",
              "aspect": "portrait",
              "alt": "Um carro alegórico exibe pessoas com roupas de penas dançando em meio a crocodilos cênicos."
            }
          ]
        ]
      }
    ]
  }
}